0.48,15.538501292
0.46,15.538501292
0.44,15.5069767442
0.42,15.515245478
0.4,15.5157622739
0.38,15.5167958656
0.36,15.5359173127
0.34,15.5188630491
0.32,15.5591731266
0.3,15.5875968992
0.28,15.5674418605
0.26,15.6124031008
0.24,15.6785529716
0.22,15.6863049096
0.2,15.6795865633
0.18,15.684754522
0.16,15.6930232558
0.14,15.6708010336
0.12,15.7028423773
0.1,15.715245478
0.08,15.7198966408
0.06,15.7519379845
0.04,15.7571059432
0.02,15.7803617571
-1.73472347598e-16,15.7865633075
-0.02,15.8201550388
-0.04,15.8186046512
-0.06,15.8444444444
-0.08,15.8506459948
-0.1,15.8697674419
-0.12,15.8630490956
-0.14,15.9080103359
-0.16,15.8945736434
-0.18,15.8093023256
-0.2,15.8118863049
-0.22,15.819121447
-0.24,15.8196382429
-0.26,15.8604651163
-0.28,15.8739018088
-0.3,15.8728682171
-0.32,15.8687338501
-0.34,15.9198966408
-0.36,15.9240310078
-0.38,15.9457364341
-0.4,15.9793281654
-0.42,16.0118863049
-0.44,16.0821705426
-0.46,16.0992248062
-0.48,16.1343669251
-0.5,16.1188630491
-0.52,16.1436692506
-0.54,16.1467700258
-0.56,16.1457364341
-0.58,16.1565891473
-0.6,16.1819121447
-0.62,16.1720930233
-0.64,16.1875968992
-0.66,16.2082687339
-0.68,16.2299741602
-0.7,16.2718346253
-0.72,16.2733850129
-0.74,16.2842377261
-0.76,16.2826873385
-0.78,16.2837209302
-0.8,16.2878552972
-0.82,16.2950904393
-0.84,16.3322997416
-0.86,16.3638242894
-0.88,16.373126615
-0.9,16.4149870801
-0.92,16.4289405685
-0.94,16.4310077519
-0.96,16.4408268734
-0.98,16.4408268734
-1.0,16.6780361757
-1.02,16.6775193798
-1.04,16.677002584
-1.06,16.6795865633
-1.08,16.6873385013
-1.1,16.7131782946
-1.12,16.7131782946
-1.14,16.7431524548
-1.16,16.7534883721
-1.18,16.7607235142
-1.2,16.7596899225
-1.22,16.7503875969
-1.24,16.7503875969
-1.26,16.7607235142
-1.28,16.7664082687
-1.3,16.7354005168
-1.32,16.7607235142
-1.34,16.7870801034
-1.36,16.7870801034
-1.38,16.7824289406
-1.4,16.765374677
-1.42,16.7901808786
-1.44,16.7793281654
-1.46,16.7793281654
-1.48,16.7793281654
-1.5,16.7968992248
-1.52,16.7968992248
-1.54,16.7782945736
-1.56,16.7782945736
-1.58,16.7782945736
-1.6,16.7782945736
-1.62,16.7782945736
-1.64,16.8093023256
-1.66,16.8093023256
-1.68,16.8031007752
-1.7,16.807751938
-1.72,16.8222222222
-1.74,16.8222222222
-1.76,16.8454780362
-1.78,16.8454780362
-1.8,16.8428940568
-1.82,16.8428940568
-1.84,16.8521963824
-1.86,16.8532299742
-1.88,16.8532299742
-1.9,16.8428940568
-1.92,16.8428940568
-1.94,16.8428940568
-1.96,16.8428940568
-1.98,16.8428940568
-2.0,16.8656330749
-2.02,16.8656330749
-2.04,16.8656330749
-2.06,16.8656330749
-2.08,16.8671834625
-2.1,16.8940568475
-2.12,16.8940568475
-2.14,16.8940568475
-2.16,16.8940568475
-2.18,16.8904392765
-2.2,16.8904392765
-2.22,16.8904392765
-2.24,16.8904392765
-2.26,16.9059431525
-2.28,16.9059431525
-2.3,16.9059431525
-2.32,16.9059431525
-2.34,16.9457364341
-2.36,16.9354005168
-2.38,16.9390180879
-2.4,16.973126615
-2.42,16.973126615
-2.44,16.973126615
-2.46,16.973126615
-2.48,16.973126615
-2.5,17.1142118863
-2.52,17.1142118863
-2.54,17.1142118863
-2.56,17.1142118863
-2.58,17.1142118863
-2.6,17.1142118863
-2.62,17.1142118863
-2.64,17.1364341085
-2.66,17.1658914729
-2.68,17.1658914729
-2.7,17.1633074935
-2.72,17.1633074935
-2.74,17.1633074935
-2.76,17.1664082687
-2.78,17.1664082687
-2.8,17.1664082687
-2.82,17.1664082687
-2.84,17.1850129199
-2.86,17.1850129199
-2.88,17.1855297158
-2.9,17.1855297158
-2.92,17.1855297158
-2.94,17.1855297158
-2.96,17.1855297158
-2.98,17.1855297158
-3.0,17.1669250646
-3.02,17.1669250646
-3.04,17.1669250646
-3.06,17.1669250646
-3.08,17.1669250646
-3.1,17.1901808786
-3.12,17.1901808786
-3.14,17.1901808786
-3.16,17.1901808786
-3.18,17.1912144703
-3.2,17.1912144703
-3.22,17.1912144703
-3.24,17.1912144703
-3.26,17.2124031008
-3.28,17.2124031008
-3.3,17.2124031008
-3.32,17.2248062016
-3.34,17.2248062016
-3.36,17.2248062016
-3.38,17.2248062016
-3.4,17.2248062016
-3.42,17.2248062016
-3.44,17.2248062016
-3.46,17.2248062016
-3.48,17.2248062016
-3.5,17.2573643411
-3.52,17.2573643411
-3.54,17.2573643411
-3.56,17.2573643411
-3.58,17.2573643411
-3.6,17.2573643411
-3.62,17.2573643411
-3.64,17.2573643411
-3.66,17.2573643411
-3.68,17.2573643411
-3.7,17.2573643411
-3.72,17.2573643411
-3.74,17.2573643411
-3.76,17.2361757106
-3.78,17.2361757106
-3.8,17.2361757106
-3.82,17.2361757106
-3.84,17.2361757106
-3.86,17.2361757106
-3.88,17.2361757106
-3.9,17.2361757106
-3.92,17.2361757106
-3.94,17.2361757106
-3.96,17.2361757106
-3.98,17.2361757106
-4.0,17.2682170543
-4.02,17.2682170543
-4.04,17.2682170543
-4.06,17.2682170543
-4.08,17.2682170543
-4.1,17.2682170543
-4.12,17.2682170543
-4.14,17.2682170543
-4.16,17.2682170543
-4.18,17.2661498708
-4.2,17.2661498708
-4.22,17.2661498708
-4.24,17.2661498708
-4.26,17.2661498708
-4.28,17.2661498708
-4.3,17.2661498708
-4.32,17.2661498708
-4.34,17.2661498708
-4.36,17.2661498708
-4.38,17.2661498708
-4.4,17.2661498708
-4.42,17.2661498708
-4.44,17.2661498708
-4.46,17.2661498708
-4.48,17.2661498708
-4.5,17.2661498708
-4.52,17.2744186047
-4.54,17.2744186047
-4.56,17.2744186047
-4.58,17.2744186047
-4.6,17.2744186047
-4.62,17.2744186047
-4.64,17.2744186047
-4.66,17.2744186047
-4.68,17.2744186047
-4.7,17.2744186047
-4.72,17.2744186047
-4.74,17.2744186047
-4.76,17.2521963824
-4.78,17.2521963824
-4.8,17.2521963824
-4.82,17.2521963824
-4.84,17.2521963824
-4.86,17.2521963824
-4.88,17.2465116279
-4.9,17.2465116279
-4.92,17.2465116279
-4.94,17.2465116279
-4.96,17.2465116279
-4.98,17.2465116279
-5.0,17.2465116279
-5.02,17.2966408269
-5.04,17.2966408269
-5.06,17.2966408269
-5.08,17.2966408269
-5.1,17.2966408269
-5.12,17.2966408269
-5.14,17.2966408269
-5.16,17.2966408269
-5.18,17.2966408269
-5.2,17.2966408269
-5.22,17.2966408269
-5.24,17.2966408269
-5.26,17.2935400517
-5.28,17.2935400517
-5.3,17.2935400517
-5.32,17.2935400517
-5.34,17.2935400517
-5.36,17.2935400517
-5.38,17.2935400517
-5.4,17.2935400517
-5.42,17.2935400517
-5.44,17.2935400517
-5.46,17.2935400517
-5.48,17.2935400517
-5.5,17.2935400517
-5.52,17.3095607235
-5.54,17.3095607235
-5.56,17.3095607235
-5.58,17.3095607235
-5.6,17.3095607235
-5.62,17.3095607235
-5.64,17.3095607235
-5.66,17.3095607235
-5.68,17.3095607235
-5.7,17.3095607235
-5.72,17.3095607235
-5.74,17.3095607235
-5.76,17.315245478
-5.78,17.315245478
-5.8,17.315245478
-5.82,17.315245478
-5.84,17.315245478
-5.86,17.315245478
-5.88,17.315245478
-5.9,17.315245478
-5.92,17.315245478
-5.94,17.315245478
-5.96,17.315245478
-5.98,17.315245478
-6.0,17.315245478
-6.02,17.3100775194
-6.04,17.3100775194
-6.06,17.3100775194
-6.08,17.3100775194
-6.1,17.3100775194
-6.12,17.3100775194
-6.14,17.3100775194
-6.16,17.3100775194
-6.18,17.3100775194
-6.2,17.3100775194
-6.22,17.3100775194
-6.24,17.3100775194
-6.26,17.3100775194
-6.28,17.3100775194
-6.3,17.3100775194
-6.32,17.3100775194
-6.34,17.3100775194
-6.36,17.3100775194
-6.38,17.3100775194
-6.4,17.3100775194
-6.42,17.3100775194
-6.44,17.3100775194
-6.46,17.3100775194
-6.48,17.3100775194
-6.5,17.3100775194
-6.52,17.3214470284
-6.54,17.3214470284
-6.56,17.3214470284
-6.58,17.3214470284
-6.6,17.3214470284
-6.62,17.3214470284
-6.64,17.3214470284
-6.66,17.3214470284
-6.68,17.3214470284
-6.7,17.3214470284
-6.72,17.3214470284
-6.74,17.3214470284
-6.76,17.3214470284
-6.78,17.3214470284
-6.8,17.3214470284
-6.82,17.3214470284
-6.84,17.3214470284
-6.86,17.3214470284
-6.88,17.3214470284
-6.9,17.3214470284
-6.92,17.3214470284
-6.94,17.3214470284
-6.96,17.3214470284
-6.98,17.3214470284
-7.0,17.3214470284
-7.02,17.3793281654
-7.04,17.3793281654
-7.06,17.3793281654
-7.08,17.3793281654
-7.1,17.3793281654
-7.12,17.3793281654
-7.14,17.3793281654
-7.16,17.3793281654
-7.18,17.3793281654
-7.2,17.3793281654
-7.22,17.3793281654
-7.24,17.3793281654
-7.26,17.3793281654
-7.28,17.3793281654
-7.3,17.3793281654
-7.32,17.3793281654
-7.34,17.3793281654
-7.36,17.3793281654
-7.38,17.3793281654
-7.4,17.3793281654
-7.42,17.3793281654
-7.44,17.3793281654
-7.46,17.3793281654
-7.48,17.3793281654
-7.5,17.3793281654
-7.52,17.4341085271
-7.54,17.4341085271
-7.56,17.4341085271
-7.58,17.4341085271
-7.6,17.4341085271
-7.62,17.4341085271
-7.64,17.4341085271
-7.66,17.4341085271
-7.68,17.4341085271
-7.7,17.4341085271
-7.72,17.4341085271
-7.74,17.4341085271
-7.76,17.4341085271
-7.78,17.4341085271
-7.8,17.4341085271
-7.82,17.4341085271
-7.84,17.4341085271
-7.86,17.4341085271
-7.88,17.4341085271
-7.9,17.4341085271
-7.92,17.4341085271
-7.94,17.4341085271
-7.96,17.4341085271
-7.98,17.4341085271
-8.0,17.4341085271
-8.02,17.4635658915
-8.04,17.4635658915
-8.06,17.4635658915
-8.08,17.4635658915
-8.1,17.4635658915
-8.12,17.4635658915
-8.14,17.4635658915
-8.16,17.4635658915
-8.18,17.4635658915
-8.2,17.4635658915
-8.22,17.4635658915
-8.24,17.4635658915
-8.26,17.4635658915
-8.28,17.4635658915
-8.3,17.4635658915
-8.32,17.4635658915
-8.34,17.4635658915
-8.36,17.4635658915
-8.38,17.4635658915
-8.4,17.4635658915
-8.42,17.4635658915
-8.44,17.4635658915
-8.46,17.4635658915
-8.48,17.4635658915
-8.5,17.4635658915
-8.52,17.4987080103
-8.54,17.4987080103
-8.56,17.4987080103
-8.58,17.4987080103
-8.6,17.4987080103
-8.62,17.4987080103
-8.64,17.4987080103
-8.66,17.4987080103
-8.68,17.4987080103
-8.7,17.4987080103
-8.72,17.4987080103
-8.74,17.4987080103
-8.76,17.4987080103
-8.78,17.4987080103
-8.8,17.4987080103
-8.82,17.4987080103
-8.84,17.4987080103
-8.86,17.4987080103
-8.88,17.4987080103
-8.9,17.4987080103
